{"photos": {"page": 1, "pages": 10, "perpage": 100, "total": 1000, "photo": [{"id": "1234", "owner": "mock_owner", "title": "Mock Photo", "ispublic": 1}]}}
